pid,uid,cpu,gpu,g2dx,display,gps,wifi,mobile
24066,10147,0.000000,0.000000,0.000000,1065.707358,0.000000,0.000000,0.000000
1954,0,0.334537,0.000000,0.000000,0.000000,0.000000,0.000000,0.000000
24246,0,0.167268,0.000000,0.000000,0.000000,0.000000,0.000000,0.000000
2477,1000,0.167268,0.000000,0.000000,0.000000,0.000000,0.000000,0.000000
2346,1000,0.334537,0.000000,0.000000,0.000000,0.000000,0.000000,0.000000
24248,0,0.334537,0.000000,0.000000,0.000000,0.000000,0.000000,0.000000
