pid,uid,cpu,gpu,g2dx,display,gps,wifi,mobile
24066,10147,0.000000,0.000000,0.000000,1104.054660,0.000000,0.000000,0.000000
1954,0,0.341194,0.000000,0.000000,0.000000,0.000000,0.000000,0.000000
2321,1000,0.170597,0.000000,0.000000,0.000000,0.000000,0.000000,0.000000
24250,0,0.170597,0.000000,0.000000,0.000000,0.000000,0.000000,0.000000
24252,0,0.170597,0.000000,0.000000,0.000000,0.000000,0.000000,0.000000
