pid,uid,cpu,gpu,g2dx,display,gps,wifi,mobile
24066,10147,0.000000,0.000000,0.000000,1117.402803,0.000000,0.000000,0.000000
1954,0,0.171450,0.000000,0.000000,0.000000,0.000000,0.000000,0.000000
2321,1000,0.342900,0.000000,0.000000,0.000000,0.000000,0.000000,0.000000
24228,0,0.171450,0.000000,0.000000,0.000000,0.000000,0.000000,0.000000
19460,0,0.171450,0.000000,0.000000,0.000000,0.000000,0.000000,0.000000
2842,1000,0.171450,0.000000,0.000000,0.000000,0.000000,0.000000,0.000000
