pid,uid,cpu,gpu,g2dx,display,gps,wifi,mobile
24066,10147,0.000000,0.000000,0.000000,1110.920723,0.000000,0.000000,0.000000
24242,0,0.174061,0.000000,0.000000,0.000000,0.000000,0.000000,0.000000
3235,0,0.174061,0.000000,0.000000,0.000000,0.000000,0.000000,0.000000
24244,0,0.342900,0.000000,0.000000,0.000000,0.000000,0.000000,0.000000
